<?xml version="1.0" encoding="UTF-8" standalone="no"?><svg xmlns="http://www.w3.org/2000/svg" xmlns:xlink="http://www.w3.org/1999/xlink" contentScriptType="application/ecmascript" contentStyleType="text/css" height="770px" preserveAspectRatio="none" style="width:807px;height:770px;" version="1.1" viewBox="0 0 807 770" width="807px" zoomAndPan="magnify"><defs><filter height="300%" id="f13x1k791j9h0s" width="300%" x="-1" y="-1"><feGaussianBlur result="blurOut" stdDeviation="2.0"/><feColorMatrix in="blurOut" result="blurOut2" type="matrix" values="0 0 0 0 0 0 0 0 0 0 0 0 0 0 0 0 0 0 .4 0"/><feOffset dx="4.0" dy="4.0" in="blurOut2" result="blurOut3"/><feBlend in="SourceGraphic" in2="blurOut3" mode="normal"/></filter></defs><g><!--MD5=[b39beb6b9c906e38566924845705d07b]
cluster Inputs--><polygon fill="#FFFFFF" filter="url(#f13x1k791j9h0s)" points="16,578.5,68.625,578.5,75.625,603.5679,315,603.5679,315,740.5,16,740.5,16,578.5" style="stroke:#000000;stroke-width:1.5;"/><line style="stroke:#000000;stroke-width:1.5;" x1="16" x2="75.625" y1="603.5679" y2="603.5679"/><text fill="#000000" font-family="sans-serif" font-size="14" font-weight="bold" lengthAdjust="spacing" textLength="46.625" x="20" y="595.4659">Inputs</text><!--MD5=[891f4b25fcd33caa6cd8115c559b116d]
cluster Outputs--><polygon fill="#FFFFFF" filter="url(#f13x1k791j9h0s)" points="339,556,403.0625,556,410.0625,581.0679,790,581.0679,790,763,339,763,339,556" style="stroke:#000000;stroke-width:1.5;"/><line style="stroke:#000000;stroke-width:1.5;" x1="339" x2="410.0625" y1="581.0679" y2="581.0679"/><text fill="#000000" font-family="sans-serif" font-size="14" font-weight="bold" lengthAdjust="spacing" textLength="58.0625" x="343" y="572.9659">Outputs</text><!--MD5=[90ba54f54370e77ef24813dec6818fa3]
class Button--><rect codeLine="38" fill="#FEFECE" filter="url(#f13x1k791j9h0s)" height="107.9276" id="Button" style="stroke:#A80036;stroke-width:1.5;" width="130" x="169" y="616.5"/><ellipse cx="211.45" cy="632.5" fill="#ADD1B2" rx="11" ry="11" style="stroke:#A80036;stroke-width:1.0;"/><path d="M214.4188,638.1406 Q213.8406,638.4375 213.2,638.5781 Q212.5594,638.7344 211.8563,638.7344 Q209.3563,638.7344 208.0281,637.0938 Q206.7156,635.4375 206.7156,632.3125 Q206.7156,629.1875 208.0281,627.5313 Q209.3563,625.875 211.8563,625.875 Q212.5594,625.875 213.2,626.0313 Q213.8563,626.1875 214.4188,626.4844 L214.4188,629.2031 Q213.7938,628.625 213.2,628.3594 Q212.6063,628.0781 211.9813,628.0781 Q210.6375,628.0781 209.95,629.1563 Q209.2625,630.2188 209.2625,632.3125 Q209.2625,634.4063 209.95,635.4844 Q210.6375,636.5469 211.9813,636.5469 Q212.6063,636.5469 213.2,636.2813 Q213.7938,636 214.4188,635.4219 L214.4188,638.1406 Z " fill="#000000"/><text fill="#000000" font-family="sans-serif" font-size="12" lengthAdjust="spacing" textLength="37" x="231.55" y="637.156">Button</text><line style="stroke:#A80036;stroke-width:1.5;" x1="170" x2="298" y1="648.5" y2="648.5"/><text fill="#000000" font-family="sans-serif" font-size="11" lengthAdjust="spacing" textLength="59" x="175" y="664.2589">button: Pin</text><text fill="#000000" font-family="sans-serif" font-size="11" lengthAdjust="spacing" textLength="116" x="175" y="679.2408">beenPressed: boolean</text><line style="stroke:#A80036;stroke-width:1.5;" x1="170" x2="298" y1="686.4638" y2="686.4638"/><text fill="#000000" font-family="sans-serif" font-size="11" lengthAdjust="spacing" textLength="90" x="175" y="702.2227">state() -&gt; boolean</text><text fill="#000000" font-family="sans-serif" font-size="11" lengthAdjust="spacing" textLength="118" x="175" y="717.2046">onRelease() -&gt; boolean</text><!--MD5=[7e68ee526bacd5d3b5b4ed7f8a923c39]
class Switch--><rect codeLine="46" fill="#FEFECE" filter="url(#f13x1k791j9h0s)" height="77.9638" id="Switch" style="stroke:#A80036;stroke-width:1.5;" width="102" x="32" y="631.5"/><ellipse cx="62.3" cy="647.5" fill="#ADD1B2" rx="11" ry="11" style="stroke:#A80036;stroke-width:1.0;"/><path d="M65.2688,653.1406 Q64.6906,653.4375 64.05,653.5781 Q63.4094,653.7344 62.7063,653.7344 Q60.2063,653.7344 58.8781,652.0938 Q57.5656,650.4375 57.5656,647.3125 Q57.5656,644.1875 58.8781,642.5313 Q60.2063,640.875 62.7063,640.875 Q63.4094,640.875 64.05,641.0313 Q64.7063,641.1875 65.2688,641.4844 L65.2688,644.2031 Q64.6438,643.625 64.05,643.3594 Q63.4563,643.0781 62.8313,643.0781 Q61.4875,643.0781 60.8,644.1563 Q60.1125,645.2188 60.1125,647.3125 Q60.1125,649.4063 60.8,650.4844 Q61.4875,651.5469 62.8313,651.5469 Q63.4563,651.5469 64.05,651.2813 Q64.6438,651 65.2688,650.4219 L65.2688,653.1406 Z " fill="#000000"/><text fill="#000000" font-family="sans-serif" font-size="12" lengthAdjust="spacing" textLength="36" x="79.7" y="652.156">Switch</text><line style="stroke:#A80036;stroke-width:1.5;" x1="33" x2="133" y1="663.5" y2="663.5"/><text fill="#000000" font-family="sans-serif" font-size="11" lengthAdjust="spacing" textLength="56" x="38" y="679.2589">switch: Pin</text><line style="stroke:#A80036;stroke-width:1.5;" x1="33" x2="133" y1="686.4819" y2="686.4819"/><text fill="#000000" font-family="sans-serif" font-size="11" lengthAdjust="spacing" textLength="90" x="38" y="702.2408">state() -&gt; boolean</text><!--MD5=[9b95352b2669b688d6ed22ae7d6882ad]
class LED--><rect codeLine="54" fill="#FEFECE" filter="url(#f13x1k791j9h0s)" height="107.9276" id="LED" style="stroke:#A80036;stroke-width:1.5;" width="96" x="678" y="616.5"/><ellipse cx="711.9" cy="632.5" fill="#ADD1B2" rx="11" ry="11" style="stroke:#A80036;stroke-width:1.0;"/><path d="M714.8688,638.1406 Q714.2906,638.4375 713.65,638.5781 Q713.0094,638.7344 712.3063,638.7344 Q709.8063,638.7344 708.4781,637.0938 Q707.1656,635.4375 707.1656,632.3125 Q707.1656,629.1875 708.4781,627.5313 Q709.8063,625.875 712.3063,625.875 Q713.0094,625.875 713.65,626.0313 Q714.3063,626.1875 714.8688,626.4844 L714.8688,629.2031 Q714.2438,628.625 713.65,628.3594 Q713.0563,628.0781 712.4313,628.0781 Q711.0875,628.0781 710.4,629.1563 Q709.7125,630.2188 709.7125,632.3125 Q709.7125,634.4063 710.4,635.4844 Q711.0875,636.5469 712.4313,636.5469 Q713.0563,636.5469 713.65,636.2813 Q714.2438,636 714.8688,635.4219 L714.8688,638.1406 Z " fill="#000000"/><text fill="#000000" font-family="sans-serif" font-size="12" lengthAdjust="spacing" textLength="22" x="730.1" y="637.156">LED</text><line style="stroke:#A80036;stroke-width:1.5;" x1="679" x2="773" y1="648.5" y2="648.5"/><text fill="#000000" font-family="sans-serif" font-size="11" lengthAdjust="spacing" textLength="39" x="684" y="664.2589">led: Pin</text><line style="stroke:#A80036;stroke-width:1.5;" x1="679" x2="773" y1="671.4819" y2="671.4819"/><text fill="#000000" font-family="sans-serif" font-size="11" lengthAdjust="spacing" textLength="84" x="684" y="687.2408">toggle() -&gt; None</text><text fill="#000000" font-family="sans-serif" font-size="11" lengthAdjust="spacing" textLength="65" x="684" y="702.2227">off() -&gt; None</text><text fill="#000000" font-family="sans-serif" font-size="11" lengthAdjust="spacing" textLength="64" x="684" y="717.2046">on() -&gt; None</text><!--MD5=[818720c15edef10f64b7efb7fc232f7d]
class Servo--><rect codeLine="62" fill="#FEFECE" filter="url(#f13x1k791j9h0s)" height="152.8732" id="Servo" style="stroke:#A80036;stroke-width:1.5;" width="289" x="354.5" y="594"/><ellipse cx="478.75" cy="610" fill="#ADD1B2" rx="11" ry="11" style="stroke:#A80036;stroke-width:1.0;"/><path d="M481.7188,615.6406 Q481.1406,615.9375 480.5,616.0781 Q479.8594,616.2344 479.1563,616.2344 Q476.6563,616.2344 475.3281,614.5938 Q474.0156,612.9375 474.0156,609.8125 Q474.0156,606.6875 475.3281,605.0313 Q476.6563,603.375 479.1563,603.375 Q479.8594,603.375 480.5,603.5313 Q481.1563,603.6875 481.7188,603.9844 L481.7188,606.7031 Q481.0938,606.125 480.5,605.8594 Q479.9063,605.5781 479.2813,605.5781 Q477.9375,605.5781 477.25,606.6563 Q476.5625,607.7188 476.5625,609.8125 Q476.5625,611.9063 477.25,612.9844 Q477.9375,614.0469 479.2813,614.0469 Q479.9063,614.0469 480.5,613.7813 Q481.0938,613.5 481.7188,612.9219 L481.7188,615.6406 Z " fill="#000000"/><text fill="#000000" font-family="sans-serif" font-size="12" lengthAdjust="spacing" textLength="32" x="499.25" y="614.656">Servo</text><line style="stroke:#A80036;stroke-width:1.5;" x1="355.5" x2="642.5" y1="626" y2="626"/><text fill="#000000" font-family="sans-serif" font-size="11" lengthAdjust="spacing" textLength="52" x="360.5" y="641.7589">servo: Pin</text><text fill="#000000" font-family="sans-serif" font-size="11" lengthAdjust="spacing" textLength="66" x="360.5" y="656.7408">MIN: integer</text><text fill="#000000" font-family="sans-serif" font-size="11" lengthAdjust="spacing" textLength="67" x="360.5" y="671.7227">MAX: integer</text><text fill="#000000" font-family="sans-serif" font-size="11" lengthAdjust="spacing" textLength="68" x="360.5" y="686.7046">duty: integer</text><line style="stroke:#A80036;stroke-width:1.5;" x1="355.5" x2="642.5" y1="693.9276" y2="693.9276"/><text fill="#000000" font-family="sans-serif" font-size="11" lengthAdjust="spacing" textLength="265" x="360.5" y="709.6865">rotateAngle(angle: float, relative: boolean) -&gt; None</text><text fill="#000000" font-family="sans-serif" font-size="11" lengthAdjust="spacing" textLength="277" x="360.5" y="724.6684">rotateValue(value: integer, relative: boolean) -&gt; None</text><text fill="#000000" font-family="sans-serif" font-size="11" lengthAdjust="spacing" textLength="90" x="360.5" y="739.6502">setDuty() -&gt; None</text><!--MD5=[aa282850b41939a9bc8faad6ceaa901b]
class DiceBot--><rect codeLine="1" fill="#FEFECE" filter="url(#f13x1k791j9h0s)" height="527.4204" id="DiceBot" style="stroke:#A80036;stroke-width:1.5;" width="170" x="281" y="7"/><ellipse cx="339.75" cy="23" fill="#ADD1B2" rx="11" ry="11" style="stroke:#A80036;stroke-width:1.0;"/><path d="M342.7188,28.6406 Q342.1406,28.9375 341.5,29.0781 Q340.8594,29.2344 340.1563,29.2344 Q337.6563,29.2344 336.3281,27.5938 Q335.0156,25.9375 335.0156,22.8125 Q335.0156,19.6875 336.3281,18.0313 Q337.6563,16.375 340.1563,16.375 Q340.8594,16.375 341.5,16.5313 Q342.1563,16.6875 342.7188,16.9844 L342.7188,19.7031 Q342.0938,19.125 341.5,18.8594 Q340.9063,18.5781 340.2813,18.5781 Q338.9375,18.5781 338.25,19.6563 Q337.5625,20.7188 337.5625,22.8125 Q337.5625,24.9063 338.25,25.9844 Q338.9375,27.0469 340.2813,27.0469 Q340.9063,27.0469 341.5,26.7813 Q342.0938,26.5 342.7188,25.9219 L342.7188,28.6406 Z " fill="#000000"/><text fill="#000000" font-family="sans-serif" font-size="12" lengthAdjust="spacing" textLength="44" x="360.25" y="27.656">DiceBot</text><line style="stroke:#A80036;stroke-width:1.5;" x1="282" x2="450" y1="39" y2="39"/><text fill="#000000" font-family="sans-serif" font-size="11" lengthAdjust="spacing" textLength="62" x="287" y="54.7589">state: string</text><text fill="#000000" font-family="sans-serif" font-size="11" lengthAdjust="spacing" textLength="101" x="287" y="69.7408">recording: boolean</text><text fill="#000000" font-family="sans-serif" font-size="11" lengthAdjust="spacing" textLength="113" x="287" y="84.7227">playbackStep: integer</text><text fill="#000000" font-family="sans-serif" font-size="11" lengthAdjust="spacing" textLength="110" x="287" y="99.7046">home: array[integer]</text><text fill="#000000" font-family="sans-serif" font-size="11" lengthAdjust="spacing" textLength="67" x="287" y="114.6865">TestLED: LED</text><text fill="#000000" font-family="sans-serif" font-size="11" lengthAdjust="spacing" textLength="86" x="287" y="129.6684">MovingLED: LED</text><text fill="#000000" font-family="sans-serif" font-size="11" lengthAdjust="spacing" textLength="100" x="287" y="144.6502">RecordingLED: LED</text><text fill="#000000" font-family="sans-serif" font-size="11" lengthAdjust="spacing" textLength="76" x="287" y="159.6321">ModeLED: LED</text><text fill="#000000" font-family="sans-serif" font-size="11" lengthAdjust="spacing" textLength="0" x="290" y="174.614"/><text fill="#000000" font-family="sans-serif" font-size="11" lengthAdjust="spacing" textLength="60" x="287" y="189.5959">Base: Servo</text><text fill="#000000" font-family="sans-serif" font-size="11" lengthAdjust="spacing" textLength="84" x="287" y="204.5778">Shoulder: Servo</text><text fill="#000000" font-family="sans-serif" font-size="11" lengthAdjust="spacing" textLength="68" x="287" y="219.5597">Elbow: Servo</text><text fill="#000000" font-family="sans-serif" font-size="11" lengthAdjust="spacing" textLength="63" x="287" y="234.5416">Wrist: Servo</text><text fill="#000000" font-family="sans-serif" font-size="11" lengthAdjust="spacing" textLength="77" x="287" y="249.5235">Gripper: Servo</text><text fill="#000000" font-family="sans-serif" font-size="11" lengthAdjust="spacing" textLength="0" x="290" y="264.5053"/><text fill="#000000" font-family="sans-serif" font-size="11" lengthAdjust="spacing" textLength="102" x="287" y="279.4872">BaseButton: Button</text><text fill="#000000" font-family="sans-serif" font-size="11" lengthAdjust="spacing" textLength="126" x="287" y="294.4691">ShoulderButton: Button</text><text fill="#000000" font-family="sans-serif" font-size="11" lengthAdjust="spacing" textLength="110" x="287" y="309.451">ElbowButton: Button</text><text fill="#000000" font-family="sans-serif" font-size="11" lengthAdjust="spacing" textLength="105" x="287" y="324.4329">WristButton: Button</text><text fill="#000000" font-family="sans-serif" font-size="11" lengthAdjust="spacing" textLength="119" x="287" y="339.4148">GripperButton: Button</text><text fill="#000000" font-family="sans-serif" font-size="11" lengthAdjust="spacing" textLength="115" x="287" y="354.3967">RecordButton: Button</text><text fill="#000000" font-family="sans-serif" font-size="11" lengthAdjust="spacing" textLength="0" x="290" y="369.3786"/><text fill="#000000" font-family="sans-serif" font-size="11" lengthAdjust="spacing" textLength="88" x="287" y="384.3604">Direction: Switch</text><text fill="#000000" font-family="sans-serif" font-size="11" lengthAdjust="spacing" textLength="110" x="287" y="399.3423">ControlMode: Switch</text><line style="stroke:#A80036;stroke-width:1.5;" x1="282" x2="450" y1="406.5653" y2="406.5653"/><text fill="#000000" font-family="sans-serif" font-size="11" lengthAdjust="spacing" textLength="115" x="287" y="422.3242">initialisePins() -&gt; None</text><text fill="#000000" font-family="sans-serif" font-size="11" lengthAdjust="spacing" textLength="103" x="287" y="437.3061">mainLoop() -&gt; None</text><text fill="#000000" font-family="sans-serif" font-size="11" lengthAdjust="spacing" textLength="124" x="287" y="452.288">checkControls() -&gt; None</text><text fill="#000000" font-family="sans-serif" font-size="11" lengthAdjust="spacing" textLength="97" x="287" y="467.2699">debugIO() -&gt; None</text><text fill="#000000" font-family="sans-serif" font-size="11" lengthAdjust="spacing" textLength="138" x="287" y="482.2518">stateTransistions() -&gt; None</text><text fill="#000000" font-family="sans-serif" font-size="11" lengthAdjust="spacing" textLength="158" x="287" y="497.2337">recordingMovement() -&gt; None</text><text fill="#000000" font-family="sans-serif" font-size="11" lengthAdjust="spacing" textLength="152" x="287" y="512.2155">playbackMovement() -&gt; None</text><text fill="#000000" font-family="sans-serif" font-size="11" lengthAdjust="spacing" textLength="110" x="287" y="527.1974">moveHome() -&gt; None</text><!--MD5=[3887e37def73a0b3059e89cb6f90bb5b]
link DiceBot to Switch--><path codeLine="73" d="M280.84,374.27 C240.07,425.25 191.62,488.51 152,548 C133.98,575.05 115.92,607.08 102.8,631.45 " fill="none" id="DiceBot-Switch" style="stroke:#A80036;stroke-width:1.0;"/><!--MD5=[ff7a969afe50ba3c4840e28a404b7f36]
link DiceBot to Button--><path codeLine="74" d="M280.91,528.06 C269.93,561.15 259.73,591.92 251.66,616.25 " fill="none" id="DiceBot-Button" style="stroke:#A80036;stroke-width:1.0;"/><!--MD5=[258f01cfaba90a0fd53cfd720c45a230]
link DiceBot to Servo--><path codeLine="75" d="M451.08,526.09 C459.21,550.43 466.94,573.56 473.72,593.86 " fill="none" id="DiceBot-Servo" style="stroke:#A80036;stroke-width:1.0;"/><!--MD5=[bff1ecf3aaa7319bfba5540fca4d2926]
link DiceBot to LED--><path codeLine="76" d="M451.31,338.46 C514.41,390.88 599.68,468.09 661,548 C677.02,568.88 691.27,594.25 702.32,616.39 " fill="none" id="DiceBot-LED" style="stroke:#A80036;stroke-width:1.0;"/><!--MD5=[1f4f44e62a5e83584dece960de1377de]
@startuml DiceBot Class Diagram
class DiceBot {
    state: string
    recording: boolean
    playbackStep: integer
    home: array[integer]
    TestLED: LED
    MovingLED: LED
    RecordingLED: LED
    ModeLED: LED

    Base: Servo
    Shoulder: Servo
    Elbow: Servo
    Wrist: Servo
    Gripper: Servo

    BaseButton: Button
    ShoulderButton: Button
    ElbowButton: Button
    WristButton: Button
    GripperButton: Button
    RecordButton: Button

    Direction: Switch
    ControlMode: Switch

    initialisePins() -> None
    mainLoop() -> None
    checkControls() -> None
    debugIO() -> None
    stateTransistions() -> None
    recordingMovement() -> None
    playbackMovement() -> None
    moveHome() -> None
}

package "Inputs" {
    class Button {
        button: Pin
        beenPressed: boolean

        state() -> boolean
        onRelease() -> boolean
    }

    class Switch {
        switch: Pin

        state() -> boolean
    }
}

package "Outputs"{
    class LED {
        led: Pin

        toggle() -> None
        off() -> None
        on() -> None
    }

    class Servo {
        servo: Pin
        MIN: integer
        MAX: integer
        duty: integer

        rotateAngle(angle: float, relative: boolean) -> None
        rotateValue(value: integer, relative: boolean) -> None
        setDuty() -> None
    }
}
DiceBot - - Switch
DiceBot - - Button
DiceBot - - Servo
DiceBot - - LED
@enduml

PlantUML version 1.2021.00(Sun Jan 10 10:25:05 GMT 2021)
(MIT source distribution)
Java Runtime: OpenJDK Runtime Environment
JVM: OpenJDK 64-Bit Server VM
Default Encoding: UTF-8
Language: en
Country: US
--></g></svg>